{
   "current_page": 1,
   "data": [
     {
       "id": 1,
       "name": "Stubbed Description 1",
       "description": "Lorem ipsum dolor sit amet, consectetur adipiscing elit. Mauris viverra felis nec pellentesque feugiat. Donec faucibus arcu maximus, convallis nisl eu, placerat dolor. Morbi finibus neque nec tincidunt pharetra. Sed eget tortor malesuada, mollis enim id, condimentum nisi. In viverra quam at bibendum ultricies. Aliquam quis eros ex. Etiam at pretium massa, ut pharetra tortor. Sed vel metus sem. Suspendisse ac molestie turpis. Duis luctus justo massa, faucibus ornare eros elementum et. Vestibulum quis nisl vitae ante dapibus tempor auctor ut leo. Mauris consectetur et magna at ultricies. Proin a aliquet turpis.",
       "price": 1111.11,
       "is_rental": 0,
       "brand_id": 1,
       "category_id": 7,
       "product_image_id": 1,
       "product_image": {
         "id": 1,
         "by_name": "Helinton Fantin",
         "by_url": "https://unsplash.com/@fantin",
         "source_name": "Unsplash",
         "source_url": "https://unsplash.com/photos/W8BNwvOvW4M",
         "file_name": "pliers01.jpeg",
         "title": "Combination pliers"
       },
       "category": {
         "id": 7,
         "parent_id": 1,
         "name": "Pliers",
         "slug": "pliers"
       },
       "brand": {
         "id": 1,
         "name": "Brand name 1",
         "slug": "brand-name-1"
       }
     },
     {
       "id": 2,
       "name": "Stubbed Description 2",
       "description": "Nunc vulputate, orci at congue faucibus, enim neque sodales nulla, nec imperdiet augue odio vel nibh. Etiam auctor, ligula quis gravida dictum, mi massa commodo ante, sollicitudin pulvinar nulla justo hendrerit lacus. Vivamus rutrum pharetra molestie. Fusce tristique odio tristique, elementum est eget, porttitor diam. Orci varius natoque penatibus et magnis dis parturient montes, nascetur ridiculus mus. Maecenas at ligula sed sapien porta pretium. Aenean cursus, magna in blandit consectetur, libero orci aliquet eros, et maximus nunc est eu dolor. Aenean non pellentesque eros. In sodales orci eget orci fringilla, vitae feugiat elit porta. Etiam aliquam, mi pretium tempus mattis, mauris ipsum gravida risus, at tempor nulla ipsum molestie ligula. Ut placerat, urna sit amet tincidunt volutpat, ex orci luctus purus, nec laoreet dolor sapien vel erat.",
       "price": 222.22,
       "is_rental": 0,
       "brand_id": 1,
       "category_id": 7,
       "product_image_id": 2,
       "product_image": {
         "id": 2,
         "by_name": "Everyday basics",
         "by_url": "https://unsplash.com/@zanardi",
         "source_name": "Unsplash",
         "source_url": "https://unsplash.com/photos/I8eTuMmxIfo",
         "file_name": "pliers02.jpeg",
         "title": "Pliers"
       },
       "category": {
         "id": 7,
         "parent_id": 1,
         "name": "Pliers",
         "slug": "pliers"
       },
       "brand": {
         "id": 1,
         "name": "Brand name 1",
         "slug": "brand-name-1"
       }
     },
     {
       "id": 3,
       "name": "Stubbed Description 3",
       "description": "Aliquam viverra scelerisque tempus. Ut vehicula, ex sed elementum rhoncus, sem neque vehicula turpis, sit amet accumsan mauris justo non magna. Cras ut vulputate lectus, sit amet sollicitudin enim. Quisque sit amet turpis ut orci pulvinar vestibulum non at velit. Quisque ultrices malesuada felis non rutrum. Sed molestie lobortis nisl, in varius arcu dictum vel. In sit amet fringilla orci. Quisque ac magna dui. Nam pulvinar nulla sed commodo ultricies. Suspendisse aliquet quis eros sit amet gravida. Aenean vitae arcu in sapien sodales commodo.",
       "price": 333.33,
       "is_rental": 0,
       "brand_id": 1,
       "category_id": 7,
       "product_image_id": 3,
       "product_image": {
         "id": 3,
         "by_name": "Michael Dziedzic",
         "by_url": "https://unsplash.com/@lazycreekimages",
         "source_name": "Unsplash",
         "source_url": "https://unsplash.com/photos/pM9pkc9J918",
         "file_name": "pliers03.jpeg",
         "title": "Bolt cutters"
       },
       "category": {
         "id": 7,
         "parent_id": 1,
         "name": "Pliers",
         "slug": "pliers"
       },
       "brand": {
         "id": 1,
         "name": "Brand name 1",
         "slug": "brand-name-1"
       }
     }     
   ],
   "first_page_url": "https://api-v4.practicesoftwaretesting.com/products?page=1",
   "from": 1,
   "last_page": 3,
   "last_page_url": "https://api-v4.practicesoftwaretesting.com/products?page=3",
   "next_page_url": "https://api-v4.practicesoftwaretesting.com/products?page=2",
   "path": "https://api-v4.practicesoftwaretesting.com/products",
   "per_page": 9,
   "prev_page_url": null,
   "to": 9,
   "total": 26
 }